{
  "description": "Users can request to set, change, remove and check alarms.",
  "language": "en",
  "shortDescription": "Set and manage alarms",
  "examples": "User: Set alarm for 10 AM tomorrow. \nUser: Wake me up in 8 hours with \u0027Let It Be\u0027 by The Beatles.\nUser: I need to change my 5 AM alarm to 7 AM.\nUser: Can you remove my 6 AM alarm please?\nUser: I want to wake every day at 7 am with Jazz music.\nUser: Delete all my alarms.\nUser: Did you set that alarm for 6:30?",
  "activeAssistantAgents": [
    "smalltalk-domain-on",
    "smalltalk-fulfillment-on"
  ],
  "disableInteractionLogs": false,
  "disableStackdriverLogs": true,
  "googleAssistant": {
    "googleAssistantCompatible": false,
    "project": "alarm-81692",
    "welcomeIntentSignInRequired": false,
    "startIntents": [],
    "systemIntents": [],
    "endIntentIds": [],
    "oAuthLinking": {
      "required": false,
      "grantType": "AUTH_CODE_GRANT"
    },
    "voiceType": "MALE_1",
    "capabilities": [],
    "protocolVersion": "V2",
    "isDeviceAgent": false
  },
  "defaultTimezone": "America/New_York",
  "webhook": {
    "available": false,
    "useForDomains": false,
    "cloudFunctionsEnabled": false,
    "cloudFunctionsInitialized": false
  },
  "isPrivate": true,
  "customClassifierMode": "use.instead",
  "mlMinConfidence": 0.3,
  "supportedLanguages": [],
  "onePlatformApiVersion": "v2beta1",
  "analyzeQueryTextSentiment": false,
  "enabledKnowledgeBaseNames": [],
  "knowledgeServiceConfidenceAdjustment": -0.4,
  "dialogBuilderMode": false
}