{
  "id": "a6726601-07d4-42a5-a064-6c1950bd81ca",
  "name": "cootle cuttle stats",
  "auto": true,
  "contexts": [],
  "responses": [
    {
      "resetContexts": false,
      "affectedContexts": [],
      "parameters": [],
      "messages": [
        {
          "type": 0,
          "lang": "en",
          "speech": "tier: 4\nspeed\": 2\nhealth\": 100\ndamage\": 50 \narmor\": 0.1 \narmorPenetration: 0\nboosts: 2\noxygen: 0\npressure: 0\ntemperature: 10\nstress: 0\npoisonImmunity: 0.2 \nbleedResistance: 0\nvision: Comun\nincognito: no\nweight: 0.6"
        }
      ],
      "defaultResponsePlatforms": {},
      "speech": []
    }
  ],
  "priority": 500000,
  "webhookUsed": false,
  "webhookForSlotFilling": false,
  "fallbackIntent": false,
  "events": []
}