{
  "id": "49885433-2fd4-43d1-a5ab-1daf54a51d07",
  "name": "Moray Sharq stats",
  "auto": true,
  "contexts": [],
  "responses": [
    {
      "resetContexts": false,
      "affectedContexts": [],
      "parameters": [],
      "messages": [
        {
          "type": 0,
          "lang": "en",
          "speech": "tier 10\nspeed: 1\nhealth: 900\ndamage: 150\narmor: 0\narmorPenetration: 0.3%\nboosts: 2\noxygen: 20\npressure: 40\ntemperature: 20\nstress: 40\npoisonImmunity: 0\nbleedResistance: 0\nvision: Comun\nincognito: no\nweight: 860"
        }
      ],
      "defaultResponsePlatforms": {},
      "speech": []
    }
  ],
  "priority": 500000,
  "webhookUsed": false,
  "webhookForSlotFilling": false,
  "fallbackIntent": false,
  "events": []
}