{
  "id": "c766e212-8b55-4c0b-bfcf-7ac012d2e220",
  "name": "welcome",
  "auto": true,
  "contexts": [],
  "responses": [
    {
      "resetContexts": false,
      "affectedContexts": [],
      "parameters": [],
      "messages": [
        {
          "type": 0,
          "lang": "en",
          "speech": [
            "hi im the elite bot",
            "hi there how can i help",
            "hello again how can i help",
            "how can i help you today"
          ]
        }
      ],
      "defaultResponsePlatforms": {},
      "speech": []
    }
  ],
  "priority": 500000,
  "webhookUsed": false,
  "webhookForSlotFilling": false,
  "fallbackIntent": false,
  "events": []
}